Facts Over Time — check_fot • ndq
…
    Value

    a dataframe with one row for each time period within the specified time span for each check;
if visits_only = TRUE, will produce only counts of visits for the check + time period

if visits_only = FALSE and distinct_visits = TRUE, will produce counts of patients, rows, and visits for the check + time period

if visits_only = FALSE and distinct_visits = FALSE, will produce counts of patients and rows for the check + time period

    Examples

# First create input file with desired checks to be executed
# You can access examples for both OMOP & PCORnet here:
ndq::fot_input_omop
#> # A tibble: 22 × 6
#>    check_id  check_description              schema table date_field filter_logic
#>    <chr>     <chr>                          <chr>  <chr> <chr>      <chr>       
#>  1 vi        all visits                     cdm    visi… visit_sta… NA          
#>  2 vo_office outpatient visits              cdm    visi… visit_sta… visit_conce…
#>  3 vo_labs   outpatient lab visits          cdm    visi… visit_sta… visit_conce…
#>  4 vo_th     telehealth visits              cdm    visi… visit_sta… visit_conce…
#>  5 vo_oa     other ambulatory visits        cdm    visi… visit_sta… visit_conce…
#>  6 vip       inpatient visits (9201 or 200… cdm    visi… visit_sta… visit_conce…
#>  7 ved       emergency department visits    cdm    visi… visit_sta… visit_conce…
#>  8 vob       observation visits             cdm    visi… visit_sta… visit_conce…
#>  9 co        all conditions                 cdm    cond… condition… NA          
#> 10 dp        prescription drugs             cdm    drug… drug_expo… drug_type_c…
#> # ℹ 12 more rows
ndq::fot_input_pcornet
#> # A tibble: 21 × 6
#>    check_id  check_description              schema table date_field filter_logic
#>    <chr>     <chr>                          <chr>  <chr> <chr>      <chr>       
#>  1 vi        all visits                     cdm    enco… admit_date NA          
#>  2 vo_office outpatient visits              cdm    enco… admit_date enc_type ==…
#>  3 vo_th     telehealth visits              cdm    enco… admit_date enc_type ==…
#>  4 vo_oa     other ambulatory visits        cdm    enco… admit_date enc_type ==…
#>  5 vip       inpatient visits (9201 or 200… cdm    enco… admit_date enc_type %i…
#>  6 ved       emergency department visits    cdm    enco… admit_date enc_type ==…
#>  7 vob       observation visits             cdm    enco… admit_date enc_type ==…
#>  8 co        all diagnoses                  cdm    diag… admit_date NA          
#>  9 dp        prescription drugs             cdm    pres… rx_start_… NA          
#> 10 ip        inpatient administration drugs cdm    med_… medadmin_… NA          
#> # ℹ 11 more rows
…
