Data Cycle Changes — check_dc • ndq
…
    Value

    This function will return a list with two dataframes:
dc_cts: A table containing the row and (where applicable) person counts for each CDM
element specified by the user

dc_meta: A table containing the metadata associated with each check that appears in dc_cts

    Examples

# First create input file with desired checks to be executed
# You can access examples for both OMOP & PCORnet here:
ndq::dc_input_omop
#> # A tibble: 26 × 8
#>    schema_current table_current schema_prev table_prev filter_logic check_domain
#>    <chr>          <chr>         <chr>       <chr>      <chr>        <chr>       
#>  1 cdm            person        cdm         person     NA           person      
#>  2 cdm            drug_exposure cdm         drug_expo… NA           drug_exposu…
#>  3 cdm            condition_oc… cdm         condition… NA           condition_o…
#>  4 cdm            device_expos… cdm         device_ex… NA           device_expo…
#>  5 cdm            visit_occurr… cdm         visit_occ… NA           visit_occur…
#>  6 cdm            condition_oc… cdm         condition… condition_t… condition_o…
#>  7 cdm            condition_oc… cdm         condition… condition_t… condition_i…
#>  8 cdm            condition_oc… cdm         condition… condition_t… condition_ed
#>  9 cdm            condition_oc… cdm         condition… condition_t… condition_o…
#> 10 cdm            condition_oc… cdm         condition… condition_t… condition_o…
#> # ℹ 16 more rows
#> # ℹ 2 more variables: check_id <chr>, check_description <chr>
ndq::dc_input_pcornet
#> # A tibble: 22 × 8
#>    schema_current table_current schema_prev table_prev filter_logic check_domain
#>    <chr>          <chr>         <chr>       <chr>      <chr>        <chr>       
#>  1 cdm            demographic   cdm         demograph… NA           person      
#>  2 cdm            diagnosis     cdm         diagnosis  NA           diagnosis   
#>  3 cdm            encounter     cdm         encounter  NA           encounter   
#>  4 cdm            diagnosis     cdm         diagnosis  enc_type %i… diagnosis_o…
#>  5 cdm            diagnosis     cdm         diagnosis  enc_type %i… diagnosis_i…
#>  6 cdm            diagnosis     cdm         diagnosis  enc_type %i… diagnosis_ed
#>  7 cdm            diagnosis     cdm         diagnosis  enc_type %i… diagnosis_o…
#>  8 cdm            diagnosis     cdm         diagnosis  enc_type %i… diagnosis_o…
#>  9 cdm            diagnosis     cdm         diagnosis  enc_type %i… diagnosis_i…
#> 10 cdm            diagnosis     cdm         diagnosis  enc_type %i… diagnosis_i…
#> # ℹ 12 more rows
#> # ℹ 2 more variables: check_id <chr>, check_description <chr>
…
